name: can_find_verified_post
interactions:
  - request:
      method: POST
      uri: http://localhost:5555/v2/accounts/find
      body: bank_account_verified=yes&page=1&per_page=2
      headers:
        X-Auth-Token:
          - acad59188ce6ddb54d4043bc4efb5f57
        User-Agent:
          - CurrencyCloudSDK/2.0 Java/5.4.0
    response:
      status: 200
      headers:
        Server:
          - cloudflare
        Date:
          - Mon, 05 Jul 2021 09:57:16 GMT
        Content-Type:
          - application/json;charset=utf-8
        Connection:
          - keep-alive
        X-Request-Id:
          - 'aa89bf70-ca7b-4b59-8c68-a9945bfc4a24'
      body: '{
                 "accounts": [
                     {
                         "id": "7a1234c3-45c8-cedb-987c-4f18372cd828",
                         "account_name": "Unit Test 1",
                         "brand": "fxcg_corporate",
                         "your_reference": "test",
                         "status": "enabled",
                         "street": "1",
                         "city": "London",
                         "state_or_province": "",
                         "country": "GB",
                         "postal_code": "1",
                         "spread_table": "fxcg_rfx_default",
                         "legal_entity_type": "company",
                         "created_at": "2012-01-20T09:26:30.000Z",
                         "updated_at": "2021-06-08T11:24:01.000Z",
                         "identification_type": "incorporation_number",
                         "identification_value": "123",
                         "short_reference": "120990-00001",
                         "api_trading": true,
                         "online_trading": true,
                         "phone_trading": true,
                         "process_third_party_funds": false,
                         "settlement_type": "net",
                         "agent_or_reliance": false,
                         "terms_and_conditions_accepted": null,
                         "bank_account_verified": "yes"
                     },
                     {
                         "id": "2dc61234-dcca-4104-afaa-9876444601db",
                         "account_name": "Unit Test 2",
                         "brand": "currencycloud",
                         "your_reference": null,
                         "status": "enabled",
                         "street": null,
                         "city": null,
                         "state_or_province": null,
                         "country": null,
                         "postal_code": null,
                         "spread_table": "fxcg_rfx_default",
                         "legal_entity_type": null,
                         "created_at": "2015-03-10T11:37:31.000Z",
                         "updated_at": "2020-10-20T09:03:30.000Z",
                         "identification_type": null,
                         "identification_value": null,
                         "short_reference": "140480-00003",
                         "api_trading": true,
                         "online_trading": true,
                         "phone_trading": true,
                         "process_third_party_funds": false,
                         "settlement_type": "net",
                         "agent_or_reliance": false,
                         "terms_and_conditions_accepted": null,
                         "bank_account_verified": "yes"
                     }
                 ],
                 "pagination": {
                     "total_entries": 17,
                     "total_pages": 9,
                     "current_page": 1,
                     "per_page": 2,
                     "previous_page": -1,
                     "next_page": 2,
                     "order": "created_at",
                     "order_asc_desc": "asc"
                 }
             }'
